{
    "response": {
        "type": "list",
        "items": [
            {
                "type": "dict",
                "schema": {
                    "Actual Page": {"type": "integer"},
                    "Total Pages": {"type": "integer"},
                    "Number of Images": {"type": "integer"}
                }
            },
            {
                "type": "list",
                "schema": {
                    "type": "dict",
                    "schema": {
                        "_id": {"type": "string"},
                        "id": {"type": "string"},
                        "date": {"type": "string", "required": false},
                        "patient": {"type": "string", "required": false},
                        "encounter": {"type": "string", "required": false},
                        "imagePath": {"type": "string", "required": false},
                        "annotationRaw": {"type": "string", "nullable": true, "required": false},
                        "boxesInfo": {
                            "type": "list",
                            "nullable": true,
                            "required": false,
                            "schema": {
                                "type": "dict",
                                "required": false,
                                "schema": {
                                    "label": {"type": "string", "required": false},
                                    "confidence": {"type": "string", "required": false},
                                    "topLeft": {
                                        "type": "dict",
                                        "nullable": true,
                                        "required": false,
                                        "schema": {
                                            "x": {"type": "string", "required": false},
                                            "y": {"type": "string", "required": false}
                                        }
                                    },
                                    "bottomRight": {
                                        "type": "dict",
                                        "nullable": true,
                                        "required": false,
                                        "schema": {
                                            "x": {"type": "string", "required": false},
                                            "y": {"type": "string", "required": false}
                                        }
                                    }
                                }
                            }
                        }
                    }
                }
            }
        ]
    }
}
