{
    "_id": {"type": "string"},
    "id": {"type": "string"},
    "birthDate":{"type": "string", "required": false},
    "deathDate": {"type": "string", "required": false},
    "first": {"type": "string", "required": false},
    "last": {"type": "string", "required": false},
    "race": {"type": "string", "required": false},
    "ethnicity": {"type": "string", "required": false},
    "gender": {"type": "string", "required": false},
    "birthPlace": {"type": "string", "required": false},
    "lat": {"type": "string", "required": false},
    "lon": {"type": "string", "required": false}
}
