{
    "id": "1d604da9-9a81-4ba9-80c2-de3375d59b41",
    "birthDate": "1998-05-25",
    "deathDate": "",
    "first": "Mariana",
    "last": "Rutherford",
    "race": "white",
    "ethnicity": "hispanic",
    "gender": "F",
    "birthPlace": "Yarmouth  Massachusetts  US",
    "lat": "42.63614335069588",
    "lon": "-71.3432549217789"
}
