{
    "id": "1d88a815-fbc2-9b61-b582-944100e41fd2",
    "date": "2003-11-01T20:30:34Z",
    "patient": "ada32eac-0c43-38d0-14e5-e2e545631eef",
    "encounter": "13efcb79-c259-e4a5-2258-ea655ceeeb48",
"imagePath": "images/blood-cell/1d88a815-fbc2-9b61-b582-944100e41fd1.png"
}
