{
    "start": "2020-11-25T21:12:49Z",
    "stop": "2020-11-25T21:23:25Z",
    "patient": "1d604da9-9a81-4ba9-80c2-de3375d59b40",
    "encounter": "d0c40d10-8d87-447e-836e-99d26ad52ea5",
    "code": "261352009",
    "reasonCode": "840544004"
}
